<?xml version="1.0" encoding="utf-8"?>
<!-- Generator: Adobe Illustrator 16.0.0, SVG Export Plug-In . SVG Version: 6.00 Build 0)  -->
<!DOCTYPE svg PUBLIC "-//W3C//DTD SVG 1.1//EN" "http://www.w3.org/Graphics/SVG/1.1/DTD/svg11.dtd">
<svg version="1.1" id="Layer_1" xmlns="http://www.w3.org/2000/svg" xmlns:xlink="http://www.w3.org/1999/xlink" x="0px" y="0px"
	 width="100px" height="100px" viewBox="0 0 100 100" enable-background="new 0 0 100 100" xml:space="preserve">
<g>
	<path fill= "#FFFFFF" d="M74.659,99l-7.076-23.231H32.001L24.924,99H2.628L37.075,1h25.301l34.581,98H74.659z M62.644,58.412
		c-6.542-21.052-10.227-32.956-11.05-35.715c-0.822-2.761-1.412-4.94-1.767-6.542c-1.469,5.697-5.676,19.783-12.618,42.257H62.644z"
		/>

</g>
</svg>
