{
  "name": "developerenvironment",
  "env_run_lists": {},
  "default_attributes": {
    "nodejs": {
        "install_method":"package"
    }
  },
  "override_attributes": {},
  "json_class": "Chef::Role",
  "run_list": [
	"recipe[nodejs]",
	"recipe[nodejs::npm]",
	"recipe[salus]"
  ],
  "description": "Developer machine with NodeJs, nginx and other tools and configuration.",
  "chef_type": "role"
}
