{
	"common": {
		"brand": "Salus",
		"countries": {
			"cz": "Tjekkiet",
			"de": "Tyskland",
			"dk": "Danmark",
			"es": "Spanien",
			"fr": "Frankrig",
			"hu": "Ungarn",
			"it": "Italien",
			"nl": "Holland",
			"no": "Norge",
			"pl": "Polen",
			"ro": "Rumænien",
			"ru": "Rusland",
			"sk": "Slovakiet",
			"sl": "Slovenien",
			"sv": "Sverige",
			"uk": "Storbritannien",
			"us": "USA"
		},
		"daysOfWeek": {
			"abbreviations": {
				"friday": "Fre",
				"monday": "Man",
				"saturday": "Lør",
				"sunday": "Søn",
				"thursday": "Tor",
				"tuesday": "Tir",
				"wednesday": "Ons"
			}
		},
		"footer": {
			"copyrightText": "Salus Controls, Inc. Alle rettigheder forbeholdes.",
			"privacyPolicy": "Privatlivspolitik",
			"termsAndConditions": "Vilkår og betingelser"
		},
		"header": {
			"about": "Om denne App",
			"allEquipment": "Alt udstyr",
			"contactSupport": "Kontakt support",
			"dataCollection": "Dataindsamling",
			"equipment": "Udstyr",
			"faq": "FAQ",
			"gateways": "Gateways",
			"help": "Hjælp",
			"home": "Hjem",
			"logout": "Log af",
			"messageCenter": "Meddelelsescenter",
			"myStatus": "Min Status",
			"oneTouch": "OneTouch",
			"profile": "Profil",
			"settings": "Indstillinger",
			"setupEquipment": "Konfigurationsudstyr"
		},
		"labels": {
			"accept": "Accepter",
			"apply": "Anvend",
			"back": "Tilbage",
			"cancel": "Annuller",
			"close": "Luk",
			"create": "Opret",
			"daily": "Dagligt",
			"delete": "Slet",
			"edit": "Rediger",
			"email": "E-mail",
			"enable": "Aktivér",
			"finished": "Færdig",
			"monthly": "Månedligt",
			"next": "Næste",
			"no": "Nej",
			"off": "fra",
			"ok": "OK",
			"on": "til",
			"save": "Gem",
			"saved": "Gemt",
			"select": "Vælg en genstand",
			"set": "Indstil",
			"skip": "Spring over",
			"turnOff": "Sluk",
			"turnOn": "Tænd",
			"weekly": "Ugenligt",
			"yearly": "Årligt",
			"yes": "Ja"
		},
		"languages": {
			"cs": "Tjekkisk",
			"da": "Dansk",
			"de": "Tysk",
			"en-uk": "Engelsk (UK)",
			"en-us": "Engelsk (US)",
			"es": "Spansk",
			"fr": "Fransk",
			"hu": "Ungarsk",
			"it": "Italiensk",
			"nl": "Hollandsk",
			"no": "Norsk",
			"pl": "Polsk",
			"ro": "Rumænsk",
			"ru": "Russisk",
			"sk": "Slovakisk",
			"sl": "Slovensk",
			"sv": "Svensk"
		},
		"lessDetails": "Færre Detaljer",
		"loadingMessage": "Salus indlæser...",
		"months": {
			"april": "April",
			"august": "August",
			"december": "December",
			"february": "Februar",
			"january": "Januar",
			"july": "Juli",
			"june": "Juni",
			"march": "Marts",
			"may": "Maj",
			"november": "November",
			"october": "Oktober",
			"september": "September"
		},
		"moreDetails": "Flere detaljer",
		"symbols": {
			"celsius": "&#8451;",
			"fahrenheit": "&#8457;"
		},
		"validation": {
			"ayla": {
				"cantbeblank": "Dette felt må ikke være blankt.",
				"confirmaccountbeforecontinue": "Bekræft kontoen, før du fortsætter",
				"hasalreadybeentaken": "Denne e-mailadresse er allerede i brug",
				"isinvalid": "Dette felt er ugyldigt",
				"tokeninvalid": "Denne token er ugyldig",
				"useridisalreadygratnedforthatresource": "Denne e-mailadresse er allerede i brug"
			},
			"default": {
				"requiredField": "Dette felt er påkrævet"
			},
			"email": {
				"alreadyConfirmed": "Denne e-mailadresse er allerede blevet bekræftet.",
				"notFound": "Der findes ingen konto for denne e-mail",
				"notMatching": "E-mailadresserne, du har indtastet, er ikke ens",
				"notValid": "E-mailadressen, du har indtastet, er ikke en gyldig e-mailadresse"
			},
			"integerRangeFormatted": "Hele tal mellem __min__ og __max__",
			"ipAddress": "Denne adresse er ugyldig. Brug formen x.x.x.x",
			"mobile": {
				"notValid": "Dette er ikke et gyldigt telefonnummer.",
				"selectCountry": "Vælg et land først."
			},
			"numberRangeFormatted": "Tal mellem __min__ og __max__",
			"passwords": {
				"notMatching": "Adgangskoder er ikke ens",
				"tooLong": "Adgangskoder må ikke være længere end fjorten tegn",
				"tooShort": "Adgangskoder skal være mindst seks tegn",
				"tooSimple": "Denne adgangskode er for simpel"
			},
			"postcode": {
				"notValid": "Ugyldigt postnummer"
			},
			"wordsOnly": "Dette felt må kun indeholde bogstaver. (Ingen tal)",
			"zip": {
				"notValid": "Dette postnummer er ugyldigt. Skal være et nummer på op til ni tal."
			}
		}
	},
	"dashboard": {
		"addGateway": "Tilføj ny Gateway",
		"header": {
			"addAPhoto": "Tilføj et foto",
			"cancelScan": "Afslut scanning?",
			"choosePhoto": "Vælg et foto fra bibliotek",
			"scanComplete": "Scanning fuldført",
			"scanMyHome": "Scan mit hjem",
			"scanned": "scannet",
			"scanning": "Scanner...",
			"takeAPhoto": "Tag et foto"
		},
		"welcomeTile": {
			"description": "På instrumentbrættet kan du se og administrere dit udstyr på et øjeblik. Fastgørelse af udstyr, OneTouch og mere giver ubesværet styring af hjemmet fra én skærm.",
			"title": "Velkommen til dit instrumentbræt!"
		}
	},
	"email": {
		"dynamic_body": {
			"title": "Hej [[user_name]]"
		},
		"footer": {
			"legalText": "",
			"salusCompanyAddress": "850 Main St, Redwood City, CA 94063",
			"salusCompanyName": "Salus Controls, Inc",
			"salusCopyRightHTML": "&copy; Salus Inc. 2016",
			"salusWebSiteText": "www.salusinc.com",
			"salusWebSiteUrl": "http://www.salusinc.com"
		},
		"guest_signup_confirmation": {
			"buttonText": "Bekræft konto",
			"contentBottomHTML": "<p>Velkommen til Salus Connected Solutions!</p>",
			"contentTopHTML": "<p>Du er blevet inviteret til [primary user]s Salus-konto. Bekræft din gæstekonto nu. Du har 30 dage fra i dag til at bekræfte kontoen.</p>",
			"emailSubject": "Bekræft gæsteadgang til Salus",
			"title": "Velkommen [[user_name]]!"
		},
		"password_reset": {
			"buttonText": "Nulstil adgangskode",
			"contentBottomHTML": "<p>Hvis du ikke har anmodet om nulstilling, eller hvis du har ombestemt dig, kan du ignorere denne meddelelese og behøver ikke fortage dig noget.</p><p>Hvis du spørgmål eller brug for hjælp, kan du finde få flere oplysninger på vores supportsider.</p><p>Salus Connected Solution Service-team</p>",
			"contentTopHTML": "<p>Vi har modtaget din anmodning om nulstilling af adgangskode. Du kan nulstille din adgangkode nu. Nulstillingsanmodningen udløber om 6 timer og dette link gælder kun en gang.</p>",
			"emailSubject": "Anmodning om nulstilling",
			"title": "Hej [[user_name]]"
		},
		"resource_share": {
			"emailBodyHTML": "[[share_owner_user_name]] har givet dig adgang som [[share_operation]] til [[share_resource_name]] med følgende ID: [[share_resource_id]]",
			"emailSubject": "[[share_owner_user_name]] har givet dig adgang som [[share_operation]] til [[share_resource_name]] med følgende ID: [[share_resource_id]]",
			"title": "Hej [[share_target_user_name]]"
		},
		"signup_confirmation": {
			"buttonText": "Bekræft konto",
			"contentBottomHTML": "",
			"contentTopHTML": "<p>Tak, fordi du har oprettet din profil. Bekræft din konto nu. Du har 30 dage fra i dag til at bekræfte kontoen.</p><p>Når din konto er bekræftet, hjælper vi dig gennem resten af processen.</p><p>Velkommen til Salus Connected Solutions!</p>",
			"emailSubject": "Bekræft din Salus-konto",
			"title": "Velkommen [[user_name]]!"
		},
		"trigger_app": {
			"title": "Hej [[user_name]]"
		}
	},
	"equipment": {
		"common": {
			"firmVer": "Firmwareversion:",
			"mac": "Mac-adresse:",
			"model": "Model:",
			"serialNum": "Serienummer:"
		},
		"delete": {
			"equipmentDontWorry": "Bare rolig, du kan altid tilføje den igen senere.",
			"gatewayWarning": "Men tjenester tilknyttet denne gateway vil også blive slettet.",
			"removeEquipment": "Fjern udstyr",
			"removeEquipmentFormatted": "Fjern __modelTypeName__",
			"removeSharedEquipmentFormatted": "Fjern delte __modelTypeName__",
			"sharesDontWorry": "Bare rolig, du kan altid tilføje dem igen senere.",
			"warning": "Du er ved at slette __product_name__"
		},
		"dialog": {
			"body": "Vælg mellem følgende muligheder:",
			"changeAllDevicesFormatted": "Ændre alle __modelTypeName__ enheder",
			"changeThisDevice": "Kun ændre denne ene",
			"checkboxDoNotShowAgain": "Vis mig ikke dette igen",
			"titleFormatted": "Du er ved at ændre indstillingerne for en enkelt __modelTypeName__"
		},
		"error": {
			"deviceOffline": "Enheden er offline",
			"eMeterGraphError": "Der opstod et problem med at indlæse grafen, klik her for at genindlæse",
			"syncError": "Egenskaber blev ikke synkroniseret for __device__",
			"tryAgain": "Kontroller din enheds operationelle status, og prøv igen senere."
		},
		"gateway": {
			"address": {
				"addressLabel": "Adresse",
				"cityLabel": "By",
				"header": "Adressen, hvor dit udstyr er installeret",
				"postcodeLabel": "Postcode",
				"stateLabel": "Stat",
				"zipLabel": "Postnummer"
			},
			"deviceInputLabel": "Gatewaynavn",
			"deviceSerialNumber": "Gateway-serienummer",
			"error": {
				"invalidDeviceSerialNumber": "Gateway ikke fundet. Tryk på knappen på gatewayen, og tryk på knappen Opdater søgning igen.",
				"registrationFailedNoNodes": "Gateway-konfiguration mislykkedes. Vent venligst to minutter og prøv igen.",
				"registrationFailedUnknown": "Registrering af gateway mislykkedes. Prøv igen.",
				"registrationTimeout": "Registreringsvindue er udløbet. Tryk på knappen på gatewayen igen."
			},
			"header": "Aktivér din gateway",
			"instruction": "Når din gateways LED lyser blåt, skal du klikke på knappen \"Søg efter gateway\" nedenfor. Gateway-serienummeret skulle vises automatisk.",
			"searchButton": "Søg efter gateway",
			"subheader": "Sørg for, at din gateway er forbundet til modemet med et ethernet kabel.",
			"submitButton": "Aktivér min gateway"
		},
		"history": {
			"headers": {
				"date": "Dato",
				"event": "Begivenhed",
				"time": "Klokkeslæt",
				"user": "Bruger"
			},
			"title": "Historik"
		},
		"information": {
			"headers": {
				"connection": "Forbundet",
				"dsn": "Serienummer",
				"firmware": "Firmware Version",
				"mac": "MAC-adresse",
				"oem": "Model",
				"version": "Softwareversion"
			},
			"title": "Information"
		},
		"it600Warnings": {
			"Error01": "Fejl01: Problem ved parring af termostat med TRV-hardware",
			"Error02": "Fejl02: Overophedning af termostatens gulvsensor",
			"Error03": "Fejl03: Termostatens gulvsensor åben",
			"Error04": "Fejl04: Termostatens gulvsensor kort",
			"Error05": "Fejl05: Termostat har mistet forbindelse til Koordinator",
			"Error06": "Fejl06: Termostat har mistet forbindelse til Ledningscenter",
			"Error07": "Fejl07: Termostat har mistet forbindelse til TRV",
			"Error08": "Fejl08: Termostat har mistet forbindelse til Modtager 1",
			"Error09": "Fejl09: Termostat har mistet forbindelse til Modtager 2",
			"Error21": "Fejl21: Termostat parret med TRV har mistet forbindelse til Koordinator",
			"Error22": "Fejl22: Lavt batteriniveau for termostat parret med TRV",
			"Error23": "Fejl23: Termostat modtager besked fra ikke-parret TRV, eller TRV modtager besked fra ikke-parret termostat",
			"Error24": "Fejl24: Termostat afvist af Ledningscenter",
			"Error25": "Fejl25: Termostat har mistet forbindelse til Overordnet",
			"Error30": "Fejl30: Udstyrsproblem for termostat parret med TRV",
			"Error31": "Fejl31: Tilpasningsproblem for termostat parret med TRV",
			"Error32": "Fejl32: Lavt batteriniveau for termostat",
			"modal": {
				"title": "IT600 aktuelle fejl"
			}
		},
		"myEquipment": {
			"categories": {
				"noEquipment": "Du har ikke noget udstyr af denne type.",
				"schedules": {
					"scheduleButton": "Opret tidsplan",
					"scheduleText": "Opret en tidsplan nu",
					"smartPlugs": "Tidsplaner kører automatisk dine smart-plugs fra foretrukne indstillinger. Brug vores anbefalede standardtidsplaner, eller opret dine egne.",
					"thermostats": "Tidsplaner kører automatisk din termostat fra foretrukne indstillinger. Brug vores anbefalede standardtidsplaner, eller opret dine egne.",
					"waterHeaters": "Tidsplaner kører automatisk dine vandvarmere fra foretrukne indstillinger. Brug vores anbefalede standardtidsplaner, eller opret dine egne."
				},
				"thermostats": {
					"createTsc": "Tilføj ny Enkeltvis styring",
					"individualControls": "Enkeltvise styringer",
					"singleControls": "Enkeltvis styring",
					"thermostatsIn": "Termostater i"
				},
				"title": "Kategorier",
				"types": {
					"carbonMonoxideDetectors": "Kuliltealarmer",
					"doorMonitors": "Dørovervågere",
					"energyMeters": "Energimålere",
					"gateways": "Gateways",
					"smartPlugs": "Smart-plugs",
					"smokeDetectors": "Røgalarmer",
					"thermostats": "Termostater",
					"trvs": "Termostatiske radiatorventiler",
					"waterHeaters": "Vandvarmere",
					"windowMonitors": "Vinduesovervågere",
					"wirelessUncontrollableDevices": "Ukontrollerede trådløse enheder"
				}
			},
			"groups": {
				"addNewEquipment": "Tilføj nyt udstyr",
				"addNewGroup": "Tilføj ny gruppe",
				"groupEquipment": "Gruppér udstyr",
				"success": "Succes!",
				"successMessage": "Enkeltvis styring er blevet oprettet for din termostat.",
				"title": "Grupper",
				"ungrouped": "Ikke-grupperet udstyr"
			},
			"newGroup": {
				"createError": "Der opstod et problem med at oprette gruppen. Prøv igen",
				"delete": {
					"linkText": "Slet gruppe",
					"modalLabel": "Du er ved at slette gruppen",
					"warning": "Bare rolig, enhederne vil forblive på din konto, og du kan altid oprette gruppen igen."
				},
				"deviceError": "Grupper skal indeholde mindst en enhed",
				"empty": "Desværre, du har ingen enheder at vise!",
				"nameError": "Indtast et gyldigt gruppenavn",
				"newGroupText": "Navn på udstyrsgruppe",
				"newGroupTitle": "Giv din gruppe et navn",
				"pageTitle": "Grupperet udstyr",
				"selectEquipmentTitle": "Vælg det udstyr, du vil have med i gruppen",
				"updateError": "Der opstod et problem med at opdatere din gruppe. Prøv igen"
			},
			"subHeader": "Organiser dit udstyr, som du ønsker det – efter kategori, placering, eller hvad der passer dig.",
			"title": "Mit udstyr"
		},
		"names": {
			"carbonMonoxideDetector": "CO-alarm",
			"coordinatorDevice": "Koordinator-enhed",
			"doorMonitor": "Dørovervåger",
			"energyMeter": "Energimåler",
			"gateway": "Gateway",
			"gatewayNode": "Gatewaynode",
			"generic": "Udstyr",
			"iT600BoilerReceiver": "Fyr-modtager",
			"iT600Thermostat": "IT600 Termostat",
			"iT600Trv": "TRV",
			"iT600WiringCenter": "Ledningscenter",
			"miniSmartPlug": "Smart-plug",
			"smartPlug": "Smart-plug",
			"smokeDetector": "Røgalarm",
			"thermostat": "Termostat",
			"waterHeater": "Vandvarmer",
			"windowMonitor": "Vinduesovervåger"
		},
		"oneTouch": {
			"automations": {
				"addNew": "Tilføj en ny OneTouch",
				"added": "OneTouch tilføjet",
				"title": "OneTouch"
			},
			"create": {
				"criteriaSection": "Indstil reglerne",
				"defaultRuleName": "Ny OneTouch-regel __ruleNum__",
				"include": "Inkluder denne OneTouch i en status?",
				"missingCriteriaError": "Vælg mindst én handling",
				"nameSection": "Giv denne OneTouch et navn",
				"nameTextbox": "F.eks. lysene på verandaen",
				"pin": {
					"pinText": "Fastgør",
					"subtitle": "Vil du fastgøre denne OneTouch på dit instrumentbræt?",
					"unpinText": "Fastgør ikke"
				},
				"subtitle": "",
				"title": "Opret en ny OneTouch"
			},
			"criteria": {
				"andWhen": "og når",
				"buttonPress": "knappen Kør nu trykkes ned",
				"dayOfWeek": {
					"everyday": "Hver dag",
					"prefix": "Ugedagen er __val__",
					"weekdays": "Ugedage",
					"weekends": "Weekend"
				},
				"doThis": "gør dette",
				"orWhen": "eller når",
				"propVal": {
					"doorWindow": {
						"closed": "lukket",
						"open": "åben"
					},
					"generic": "Indstil __device_name__ til __val__",
					"is": "er __val__",
					"isBetween": "er mellem __lower_val__ og __upper_val__",
					"isGreaterThan": "er større end __val__",
					"isLessThan": "er mindre end __val__",
					"sensor": {
						"alerting": "advarer"
					},
					"smartPlug": {
						"action": "Slå __device_name__ __val__",
						"off": "FRA",
						"on": "TIL"
					},
					"thermostat": {
						"action": "Indstil __device_name__ til __val__",
						"auto": "Automatisk tilstand",
						"cooling": "Afkøling",
						"decreaseBy": "aftag med __val__ grader",
						"degrees": "grader",
						"fanAuto": "Vifte Auto",
						"fanOn": "Vifte Til",
						"heating": "Opvarmning",
						"increaseBy": "tiltag med __val__ grader",
						"off": "Fra"
					},
					"waterHeater": {
						"action": "Indstil __device_name__ til __val__",
						"boost": "boost",
						"continuous": "uafbrudt",
						"off": "fra",
						"schedule": "planlagt"
					}
				},
				"sendAlert": {
					"email": {
						"prefix": "Send en e-mail til __val__",
						"sendEmail": "Send en e-mail"
					},
					"sms": {
						"prefix": "Send SMS til __val__",
						"sendSMS": "Send SMS"
					}
				},
				"sorry": "beklager",
				"thenDoThis": "gør så dette",
				"thenDoThisLater": "gør så dette senere",
				"timeOfDay": {
					"prefix": "Klokken er __val__",
					"suffix": "til __val__"
				},
				"timer": {
					"baseTime": "__property_actions__ i __time_string__",
					"combined": "__hour_string__ og __min_string__",
					"hour": {
						"hour": "__time__ time",
						"hours": "__time__ timer"
					},
					"min": {
						"minute": "__time__ minut",
						"minutes": "__time__ minutter"
					},
					"now": "__property_actions__ nu"
				},
				"unsupported": "Dine regelkriterier er ikke understøttet i øjeblikket ",
				"when": "når"
			},
			"details": {
				"addToDash": "Føj til instrumentbræt:",
				"delete": {
					"modalText": "One Touch vil ikke længere køre og vil blive fjernet fra alle Min Status.",
					"oneTouch": "Du er ved at slette __one_touch__"
				},
				"includedIn": "Inkluderet i:",
				"runNow": "Kør nu"
			},
			"edit": {
				"title": "Rediger OneTouch"
			},
			"emails": {
				"subjectFormatted": "OneTouch regel __ruleName__ blev udløst",
				"usernameFormatted": "__firstname__ __lastname__"
			},
			"menus": {
				"doThis": {
					"header": "GØR DETTE",
					"notifyMe": {
						"contactMenu": {
							"addNew": "Tilføj ny",
							"addNewContact": "Tilføj ny kontakt",
							"countryCode": "Land",
							"email": "E-mailadresse",
							"emailConfirm": "Bekræft e-mailadresse",
							"emailOptional": "E-mailadresse (valgfri)",
							"mobilePhone": "Mobilnummer",
							"mobilePhoneOptional": "Mobilnummer (valgfri)",
							"name": "Kontaktnavn",
							"select": "Hvordan vil du og dine gæster gerne modtage advarsler?"
						},
						"email": "Send e-mail",
						"emailHeader": "E-mail",
						"sms": "Send SMS",
						"smsHeader": "SMS"
					},
					"propertyChange": {
						"changeFanMode": "Skift viftefunktion",
						"changeMode": "Skift funktion",
						"changeSetTemp": "Skift indstilling",
						"exactTemp": "Eksakt temperatur",
						"fanAuto": "Auto",
						"fanOn": "Vifte til",
						"increaseDecrease": "Tiltag eller aftag med",
						"smartPlugOff": "Slå smartplug FRA",
						"smartPlugOn": "Slå smart-plug TIL",
						"waterHeater": {
							"boost": "Indstil til boost-funktion",
							"continuous": "Indstil at køre uafbrudt",
							"off": "Slå fra",
							"schedule": "Indstil til tidsplan"
						}
					},
					"root": {
						"notifyMe": "Send mig en meddelelse",
						"propertyChange": "Skift en enheds egenskab"
					}
				},
				"thenDoThis": {
					"header": "SÅ GØR DETTE SENERE",
					"root": {
						"stateOfEquipment": "Status på udstyr",
						"undo": "Fortryd"
					},
					"timer": {
						"changeCheckBox": "Tillad bruger at ændre varighed",
						"hours": "Så mange timer",
						"minutes": "Så mange minutter",
						"title": "Hvor meget senere skal dette ske?"
					},
					"undo": {
						"title": "Ændre denne OneTouch?"
					}
				},
				"when": {
					"dayOfWeek": {
						"finalMenu": "Vælg dagene, hvor du vil køre din OneTouch.",
						"picker": "Vælg ugedage",
						"weekday": "Ugedage",
						"weekend": "Weekend"
					},
					"header": "NÅR",
					"pressAButton": {
						"button": "Regel kører ved tryk på knappen"
					},
					"root": {
						"dayOfWeek": "Ugedag",
						"pressAButton": "Jeg trykker på en knap",
						"stateOfEquipment": "Status på udstyr",
						"timeOfDay": "Klokkeslæt",
						"weather": "Vejr"
					},
					"stateOfEquipment": {
						"doorWindow": {
							"closed": "Er lukket",
							"open": "Er åben"
						},
						"equipmentCategory": "Udstyrskategorier",
						"equipmentGroup": "Udstyrsgrupper",
						"individualEquipment": "Enkeltvist udstyr",
						"sensor": {
							"alert": "Sensor advarer"
						},
						"smartPlug": {
							"off": "Smart-plug er slået FRA",
							"on": "Smart-plug er slået TIL"
						},
						"thermostats": {
							"above": "Over",
							"below": "Under",
							"between": "Mellem",
							"enterValue": "Indtast en temperatur",
							"selectAboveValue": "Vælg Over temperatur",
							"selectBelowValue": "Vælg Under temperatur"
						},
						"waterHeater": {
							"boost": "Er i boost-tilstand",
							"continuous": "Kører uafbrudt",
							"off": "Er slået fra",
							"schedule": "Kører tidsplan"
						}
					},
					"timeOfDay": {
						"endTime": "Sluttidspunkt",
						"endTimeError": "Sluttidspunkt skal være efter starttidspunkt",
						"formatError": "Indtast i korrekt format",
						"specify": "Indstil tidspunkt",
						"startTime": "Starttidspunkt",
						"sunriseSunset": "Solopgang / Solnedgang",
						"to": "til"
					},
					"weather": {
						"current": "Nuværende temperatur",
						"forecast": "Vejrudsigt"
					}
				}
			},
			"recommended": {
				"addRecommended": "Tilføj OneTouch",
				"modal": {
					"titleFormatted": "Anvend OneTouch-regel '__ruleName__'"
				},
				"smartPlug": {
					"12am": {
						"description": "Slå et Smart-plug fra ved midnat",
						"name": "Slå fra ved midnat",
						"nameFormatted": "Slå fra ved midnat: __name__"
					},
					"oneHour": {
						"description": "Slå et Smart-plug til i 1 time",
						"name": "Timer på 1 time",
						"nameFormatted": "Timer på 1 time: __name__"
					},
					"title": "Smartplugs",
					"turnOff": {
						"description": "Slå et Smart-plug fra med det samme",
						"name": "Slå fra",
						"nameFormatted": "Slå fra: __name__"
					}
				},
				"thermostat": {
					"title": "Termostater",
					"turnOff": {
						"description": "Slå en termostat fra med det samme",
						"name": "Slå termostat fra",
						"nameFormatted": "Slå termostat fra: __name__"
					}
				},
				"title": "Anbefalet",
				"waterHeater": {
					"boostFor2": {
						"description": "Slå boost funktion til i 2 timer",
						"name": "Boost i 2 timer",
						"nameFormatted": "Boost i 2 timer: __name__"
					},
					"title": "Vandvarmere"
				}
			}
		},
		"property": {
			"names": {
				"coolingSetpoint_x100": "Indstillingsværdi for afkøling",
				"heatingControl": "Opvarmningskontrol",
				"temperatureOffset": "Modregning af rumtemperatur",
				"cylinderConnection": "Cylinderforbindelse",
				"oUTSensorProbe": "Sensorsonde",
				"oUTSensorType": "Sensorsonde brugt som luftsensor eller gulvsensor",
				"coolingControl": "Afkølingskontrol",
				"actuatorType": "Aktuatortype",
				"valveProtection": "Ventilbeskyttelse",
				"frostSetpoint_x100": "Indstillingsværdi ved frost",
				"floorCoolingMin_x100": "Gulvsensorgrænse for Afkøling",
				"floorHeatingMax_x100": "Gulvsensorgrænse for højeste temperatur",
				"floorHeatingMin_x100": "Gulvsensorgrænse for laveste temperatur",
				"heatingSetpoint_x100": "Indstillingsværdi for opvarmning",
				"holdDuration": "Venteposition (minutter)",
				"lEDMode": "LED-tilstand",
				"lockKey": "Vil du ændre låseindstillingerne på din termostat?",
				"keyLock": "Vil du ændre låseindstillingerne på din termostat?",
				"maxHeatSetpoint_x100": "Indstillingsværdigrænse for opvarmning ",
				"minCoolSetpoint_x100": "Indstillingsværdigrænse for afkøling",
				"networkLANIP": "IP-adresse",
				"networkLANMode": "Network LAN Mode",
				"networkLANRouterAddr": "Router",
				"networkLANSubnet": "Subnetmaske",
				"networkPriDNS": "Primær DNS",
				"networkSecDNS": "Sekundær DNS",
				"shutOffDisplay": "Slå LCD-display Fra",
				"systemMode": "Systemtilstand",
				"temperatureDisplayMode": "Fahrenheit ELLER Celsius",
				"timeFormat24Hour": "Timeformat"
			},
			"values": {
				"actuatorClosed": "Normalt lukket",
				"actuatorOpen": "Normalt åben",
				"alwaysOn": "Altid Til",
				"auto": "Auto",
				"celsius": "Celsius",
				"cool": "Afkøl",
				"cylinderConnected": "Cylindersonde tilsluttet",
				"cylinderNotConnected": "Cylindersonde ikke tilsluttet",
				"disabled": "Deaktiveret",
				"dynamic": "Dynamisk",
				"emergencyHeating": "Opvarmning i nødstilfælde",
				"enabled": "Aktiveret",
				"fahrenheit": "Fahrenheit",
				"heat": "Opvarm",
				"hour12": "12:00",
				"hour24": "24:00",
				"locked": "Ja, lås den",
				"longCycle": "+/- 0,5  grader C",
				"midCyle": "+/- 0,25 grader C",
				"no": "Nej",
				"numberInCFormatted": "__number__ grader C",
				"numberInFFormatted": "__number__ grader F",
				"off": "Fra",
				"offWhenIdle": "Fra ved tomgang",
				"on": "Til",
				"sensorAir": "Luftsensor",
				"sensorConnected": "Sensorsonde tilsluttet",
				"sensorDewPointConnected": "Dugpunktsensor tilsluttet",
				"sensorFloor": "Gulvsensor",
				"sensorNotConnected": "Ingen Sensor tilsluttet",
				"shortCyle": "+/- 0",
				"static": "Static",
				"turnOff": "Sluk",
				"turnOn": "Tænd",
				"unlocked": "Nej, lås ikke",
				"yes": "Ja"
			}
		},
		"provisioning": {
			"boilerReceiver": "iT600 fyrmodtager",
			"coMonitor": "Kultiltealarm",
			"coordinator": "Koordinatorenhed",
			"device": "Salus-kontrolleret enhed",
			"doorSensor": "Dørsensor",
			"energyMeter": "Energimonitor for hele huset",
			"gateway": "Salus Universal Gateway",
			"gatewayNode": "Gatewaynode",
			"it530Thermostat": "iT530 Termostat",
			"it600Thermostat": "iT600 Termostat",
			"namedEnergyMonitor": "__name__s energimonitor",
			"optimaThermostat": "Optima Termostat",
			"smartPlug": "Smart plug",
			"smokeAlarm": "Røgalarm",
			"trv": "iT600 TRV",
			"windowSensor": "Vinduessensor",
			"wiringCenter": "iT600 Ledningscenter"
		},
		"schedule": {
			"create": {
				"description": "Tidsplaner kører automatisk dit udstyrs foretrukne indstillinger.",
				"no": "Ikke nu",
				"question": "Vil du oprette en tidsplan for dette udstyr nu?",
				"yes": "Ja, opret en tidsplan"
			},
			"widget": {
				"title": "Tidsplan"
			}
		},
		"settings": {
			"empty": "Desværre, du har ikke nogle indstillinger at vise!",
			"networkSettingsSaveConfirmSecondary": "Vil du gemme dine netværksindstillinger?",
			"networksSettingsSaveConfirmPrimary": "Du har opdateret dine netværksindstilllinger.  Hvis du vil gemme dem, skal du blive på denne side i 1 minut.",
			"networksSettingsSavingPrimary": "Vi gemmer dine netværksindstillinger. Du må endelig ikke navigere væk fra siden.",
			"networksSettingsSavingSecondary": "Processen tager omkring 1 minut.",
			"title": "Indstillinger"
		},
		"stackedBarGraph": {
			"time": "Tid",
			"watts": "Watt"
		},
		"status": {
			"alias": "Navn på udstyr",
			"battery": {
				"charged": "__val__% opladet"
			},
			"monitoring": "Overvågning",
			"thermostat": {
				"lock": "Termostat låst",
				"unlock": "Termostat ikke låst"
			}
		},
		"thermostat": {
			"frostPointModal": {
				"header": "Slå HVAC-system fra",
				"labels": {
					"buttonCancel": "Annuller",
					"buttonTurnOff": "Slå HVAC fra",
					"chooseFrostPoint": "Vælg en frost-indstillingsværdi",
					"radioNo": "Nej, indstil ikke en frost-indstillingsværdi",
					"radioYes": "Ja, indstil en frost-indstillingsværdi"
				},
				"subHeader": "Vil du indstille en temperatur for frost?",
				"tempModeC": "__number__ &#8451;",
				"tempModeF": "__number__ &#8457;"
			},
			"holdPointModal": {
				"header": "Behold indstillet temperatur",
				"holdTitle": "Behold",
				"labels": {
					"btnCancel": "Annuller",
					"btnOk": "OK",
					"radioScheduleChange": "Indtil næste tidsplansændring",
					"radioUntilChange": "Indtil jeg ændrer den instillede temperatur"
				}
			},
			"menus": {
				"modeLabels": {
					"auto": "Auto",
					"cooling": "Afkøling",
					"fan": "Vifte",
					"fanOn": "Fan On",
					"followSchedule": "Følg tidsplan",
					"heating": "Opvarmning",
					"off": "Fra",
					"permanentHold": "Behold permanent",
					"systemOff": "System Fra",
					"temporaryHold": "Behold midlertidigt"
				}
			}
		},
		"thermostatSingleControl": {
			"createPage": {
				"addButtonText": "Tilføj en ny Enkeltvis styring",
				"bottomBlurb": "Du vil stadig kunne lave ændringer i denne Enkeltvis styring, efter du har indstillet den.",
				"delete": "Slet Enkeltvis styring",
				"deviceError": "Der skal være mindst 1 forbundet enhed i Enkeltvis styring",
				"error": "Der opstod et problem under opretelse af Enkeltvis styring. Prøv igen",
				"individualControls": "Enkeltvise styringer",
				"nameError": "Indtast venligst et gyldigt navn for din Enkeltvis styring",
				"newTSCSectionTitle": "Navngiv denne Enkeltvis styring",
				"newTSCText": "f.eks. Soveværelse ovenpå",
				"thermostatsSectionTitle": "Vælg de termostater, du vil have i denne Enkeltvis styring.",
				"titleExisting": "Enkeltvis styringer",
				"titleNoExisting": "Indstilling af en Enkeltvis styring",
				"typeError": "You cannot mix thermostat model types in a TSC"
			},
			"initialSetup": {
				"description": "Ændre én, ændre mange. Lorem ipsum dolor sit amet, consectetur adipiscing elit. Sed gravida bibendum dictum. Maecenas nec eleifend dui. Suspendisse mollis purus scelerisque maximus ultricies. Nulla a metus arcu. Interdum et malesuada fames ac ante ipsum",
				"prompt": "Vil du indstille en Enkeltvis styring for flere termostater?",
				"title": "Indstilling af en Enkeltvis styring"
			},
			"title": "Enkeltvis styring af termostat"
		},
		"trv": {
			"add": "Add TRV",
			"modal": {
				"title": "Vælg TRV(er) til __name__",
				"tooMany": "Du kan forbinde op til 6 TRVer til en termostat"
			},
			"noTrvs": "Ingen TRVer er knyttet til denne enhed",
			"title": "TRVer på denne termostat"
		},
		"usage": {
			"interactiveMode": "Interaktiv funktion",
			"title": "Brug"
		}
	},
	"error404": {
		"backToDash": "Tilbage til start",
		"message": "Siden findes ikke.",
		"title": "404 fejl"
	},
	"errors": {
		"responseText": "Responstekst:",
		"serviceEndpoint": "Tjenesteslutpunkt:",
		"siteMessage": "Der opstod en fejl, tryk her for at prøve igen!",
		"statusCode": "Status Kode:",
		"statusText": "Statustekst:"
	},
	"key": "forbruger-da",
	"login": {
		"changePasswordWithToken": {
			"button": "Gem ny adgangskode",
			"confirmPasswordLabel": "Bekræft ny adgangskode",
			"message": "Opret nu adgangskode",
			"newPasswordLabel": "Ny adgangskode",
			"resetPasswordTokenLabel": "Nulstil adgangskodetoken"
		},
		"confirm": {
			"emailSent": "Vi sender dig en e-mail lige nu, så du kan bekræfte din konto.",
			"headline": "Du er der næsten",
			"ready": "Klar til at logge på?",
			"resend": "Din konto er næsten bekræftet, __user_name__!",
			"thanks": "Tak for tilmeldingen, __user_name__!",
			"trustedSender": "Sørg for at tilføje email@salus.com til dine sikre e-mailkontakter for at modtage opdateringer fra os."
		},
		"forgotPassword": {
			"backToSignInLinkLabel": "Tilbage til Log på",
			"button": "E-mail midlertidig token",
			"inputLabel": "E-mail for denne konto",
			"message": "Glemt din adgangskode?"
		},
		"forgotPasswordConfirmation": {
			"button": "Tilbage til Login",
			"message": "Vi har sendt dig instruktioner til nulstilling af din adgangskode. Kontroller din e-mail.",
			"title": "Glemt adgangskode"
		},
		"headline": "Velkommen til\nSalus",
		"login": {
			"accountLink": "Konfigurer en konto",
			"accountMessage": "Har du ikke en konto endnu?",
			"button": "Log på",
			"emailLabel": "E-mail",
			"error": {
				"accountLocked": "Din konto er blevet låst grundet forkerte loginforsøg. Vent 30 minutter, før du logger på igen.",
				"invalidLanguage": "Vælg et sprog",
				"invalidUsernamePassword": "Din adgangskode eller din e-mailadresse er ikke korrekt. Prøv igen."
			},
			"forgotPassword": "Glemt din adgangskode?",
			"keepLoggedIn": "Hold mig logget på",
			"passwordLabel": "Adgangskode",
			"resendConfirmationEmail": "Send bekræftelses-e-mail igen",
			"siloMessage": {
				"eu": "Skift til app for USA",
				"us": "Skift til app for EU"
			}
		},
		"pinpad": {
			"authInvalid": "Den indtastede pinkode er ikke gyldig",
			"authSuccess": "Pinkode er verificeret",
			"pinRemoveFail": "Kunne ikke fjerne pinkode",
			"pinRemoved": "Pinkode er fjernet",
			"setFail": "Kunne ikke indstille pinkode",
			"setSuccess": "Pinkode er indstillet"
		},
		"resetPassword": {
			"changeFailed": "Det lykkedes ikke at ændre din adgangskode",
			"requestNewToken": "Du kan anmode om en ny token ved at navigere til Glemt adgangskode",
			"title": "Kunne ikke ændre adgangskode.",
			"tokensExpire": "Tokener udløber hver 6. time",
			"tryAgain": "Du kan prøve igen, hvis tokenen er indtastet forkert"
		},
		"sendConfirmationEmail": {
			"backToSignInLinkLabel": "Tilbage til Log på",
			"button": "Send bekræftelses-e-mail igen",
			"message": "Bekræftelse af konto"
		},
		"signInWithToken": {
			"button": "Forbundet enhed",
			"error": {
				"invalidToken": "login.signInWithToken.error.invalidToken"
			},
			"inputLabel": "Aktiveringskode",
			"message": "Knyt denne mobilenhed til din konto"
		},
		"welcome": {
			"accountLink": "Log på",
			"accountMessage": "Har du allerede en konto?",
			"button": "Tilmeld dig",
			"message": "Lad os komme i gang."
		}
	},
	"messageCenter": {
		"alerts": {
			"alarmSounding": "Alarm lyder nu",
			"alert": "Alarmer",
			"criteria": "Alarmkriterier",
			"currentStatus": "Nuværende status",
			"dateTime": "Dato og tid",
			"details": "Detaljer",
			"equipment": "Udstyr",
			"subHeader": "Alarmer lorem ipsum dolor sit amet alipsis diam.",
			"title": "Alarmer"
		},
		"notifications": {
			"subHeader": "Meddelelser for de sidste 90 dage",
			"title": "Meddelelser"
		},
		"title": "Meddelelsescenter"
	},
	"missingKey": "##############################",
	"myStatus": {
		"addNewGateway": "Tilføj en ny gateway",
		"addNewStatus": "Tilføj en ny status",
		"makeNewStatus": {
			"createNewOneTouch": "Opret en ny OneTouch for denne status",
			"delete": "Slet status",
			"deleteWarning": "Vil du slette denne status?",
			"editName": {
				"name": "Navn"
			},
			"invalidGateway": "Du bruger en ugyldig gateway. Skift gateway, eller tilføj en ny gyldig gateway.",
			"ruleView": {
				"run": "Kør, når status starter"
			}
		},
		"newStatus": {
			"createStatusTitle": "Opret en ny status",
			"formFields": {
				"continue": "Fortsæt",
				"statusName": "Statusnavn"
			},
			"giveStatusName": "Navngiv denne status",
			"selectIcon": "Vælg et ikon for din status",
			"selectIconInstructions1": "Vælg et ikon fra din IT600, og styr din status fra IT600 eller appen.",
			"selectIconInstructions2": "Vælg et andet ikon for at styre din status fra appen.",
			"showLessIcons": "Vis færre ikoner",
			"showMoreIcons": "Vis flere ikoner"
		},
		"newStatusAdded": "Ny status tilføjet",
		"noGatewayMessage": "Ingen gateway fundet. Tilføj en gateway.",
		"title": "Min Status"
	},
	"schedules": {
		"deviceTypes": {
			"smartPlug": "smart-plugs",
			"thermostat": "termostater",
			"waterHeater": "vandvarmere"
		},
		"edit": {
			"changeIndividualThermostat": {
				"no": "Nej, bare denne ene",
				"subtitle": "Vil du foretage denne ændring for alle termostater af samme model?",
				"title": "Du er ved at ændre en indstilling for en af termostaterne.",
				"yes": "Ja, foretag ændringen for alle af denne model"
			},
			"changeSingleControl": {
				"changeGroup": {
					"no": "Nej, ikke nu",
					"subtitle": "Er du sikker på, at du vil gøre dette nu?",
					"title": "Du er ved at ændre indstillingerne for alle termostaterne i din Enkeltvis styring",
					"yes": "Ja, foretag ændringen"
				},
				"changeSingle": {
					"changeJustThermostat": "Foretag kun ændring for denne termostat",
					"changeSingleControl": "Foretag ændring for alle termostater i Enkeltvis styring",
					"subtitle": "Vil du foretage denne ændring for alle termostater i Enkeltvis styring?",
					"title": "Du er ved at ændre indstillingerne for en af termostaterne i din Enkeltvis styring"
				}
			},
			"modal": {
				"addNew": "Tilføj en ny enkeltvis styring",
				"deleteLabel": "Slet enkeltvis styring",
				"duplicateTstatsErrorBody": "Sørg for, at den samme termostat ikke er markeret på mere end en enkeltvis styring, at alle enkeltvise styringer har et navn, og at mindst en termostat er valgt.",
				"duplicateTstatsErrorTitle": "Fejl: En eller flere enkle styringer var ikke i stand til at gemme.",
				"emptyIndividualControls": "Ingen Enkeltvise styring tilgængelig",
				"emptySingleControls": "Ingen Enkeltvise styringer tilgængelige",
				"emptyThermostats": "Ingen termostater tilgængelige",
				"individualLabel": "Enkeltvise styringer",
				"nameLabel": "Navn på den enkeltvise styring",
				"title": "Rediger termostats enkeltvise styringer"
			},
			"previousScreen": "< Forudindstillinger for tidsplan",
			"thermostatList": {
				"emptyThermostats": "Ingen tilgængelige termostater eller enkeltvise styringer"
			},
			"thermostatSettings": {
				"addInterval": "Tilføj interval",
				"apply": "Tilføj tidsplan",
				"cancel": "Annuller",
				"description": "Lorem ipsum dolor sit amet, in molestie sententiae pro, an qui sint iuvaret officiis. Aperiri equidem ea vis, eam natum affert vituperata ex, nec ne constituam philosophia.",
				"start": "STARTTIDSPUNKT",
				"temp": "TEMPERATUR"
			}
		},
		"emptyView": {
			"message": "Du har ingen __type__ på denne gateway. Tilføj __type__ for at oprette tidsplaner."
		},
		"presets": {
			"description": "Vi har designet tre forudindstillede tidsplaner, som er baseret på almindelig dagligdag. Vælg en af de tre, eller opret din egen.",
			"presetSchedules": {
				"createNew": {
					"description": "Indstil dine egne termostattidsplaner, så dit hjem virker præcis, som du vil have det.",
					"title": "Opret din egen tidsplan"
				},
				"mostlyAway": {
					"description": "Designet til dem, der er mere væk, end de er hjemme.",
					"title": "Væk det meste af tiden"
				},
				"mostlyHome": {
					"description": "For dem, der er hjemme mere, end de er væk.",
					"title": "Hjemme det meste af tiden"
				},
				"workingWeek": {
					"description": "Til hjem med en traditionel arbejdsuge mandag til fredag, hvor man er hjemme i weekenderne.",
					"title": "Traditionel arbejdsuge"
				}
			},
			"title": "Vælg en forudindstillet tidsplan, eller opret din egen"
		},
		"schedule": {
			"addInterval": "Tilføj interval",
			"columnLabels": {
				"mode": "SYSTEMTILSTAND",
				"startTime": "STARTTIDSPUNKT",
				"temperature": "TEMPERATUR"
			},
			"deleteInterval": "Slet interval",
			"newInterval": {
				"add": "Tilføj",
				"mode": {
					"cool": "Afkøl",
					"heat": "Opvarm",
					"off": "Fra",
					"on": "Til",
					"title": "Funktion:"
				},
				"startTime": "Starttidspunkt",
				"temperature": "Temperatur",
				"temperatureError": "Temperatur er ugyldig. Indtast et tal mellem __floor__ og __ceiling__. Decimaltal må ende i 0 og 5",
				"timeError": "Det indtastede klokkeslæt er ugyldigt. Indtast et klokkeslæt i formatet hh:mm am/pm",
				"title": "Tilføj et nyt Interval",
				"update": "Opdater"
			},
			"noIntervals": "Der er ingen intervaller i denne tidsplan.",
			"weekConfigurations": {
				"MO-FR": "MA - FR",
				"MO-SU": "MA - SØ",
				"SA-SU": "LØ - SØ"
			},
			"weekDropdown": {
				"daily": "Daglig",
				"fullWeek": "Hjemme de meste af tiden / MA-SØ",
				"workWeek": "Arbejdsuge / MA-FR og LØ+SØ"
			}
		},
		"smartPlug": {
			"title": "Tidsplan til smart-plug"
		},
		"thermostat": {
			"duplicateSchedule": {
				"description": "Hvilke termostater vil du gerne kopiere denne tidsplan til?",
				"duplicate": "Kopiér",
				"error": "Du skal have indtastninger i tidsplanen for at kopiere en tidsplan. Sørg for at gemme din tidsplan.",
				"title": "Kopiér tidsplan"
			},
			"instructions": "Vælg den type tidsplan, som du vil oprette til enkeltvis styring",
			"selectionTitle": "Vælg tidsplanskonfiguration",
			"subtitle": "Opret din egen tidsplan",
			"title": "Tidsplan til termostat"
		},
		"waterHeater": {
			"title": "Tidsplan til vandvarmer"
		}
	},
	"settings": {
		"about": {
			"buildDateTitle": "Build-dato",
			"companyName": "Salus Controls Inc.",
			"companyTitle": "Virksomhed",
			"copyrightFormatted": "© __currentYear__ Salus Controls Inc.",
			"releasedTitle": "Udgivet",
			"versionTitle": "Version"
		},
		"dataCollection": {
			"options": {
				"off": "Du har altid ret til at slå dataindsamling fra. Slås dataindsamling fra, vil det betyde, at appen automatisk bliver deaktiveret, og at din mobilenhed eller computer ikke kan bruges til at administrere dit udstyr eller din tjeneste. Du kan altid styre dit udstyr manuelt. Henvis til instruktionerne i dit udstyrs brugervejledning.",
				"on": "Vi anbefaler dig at slå dataindsamling TIL. Data indsamlet fra din mobilenhed og dit udstyr bruges til at køre appen, dine tilsluttede tjenester og til at sende vigtige advarsler og meddelelser.",
				"optionPrefix": "Dataindsamling er",
				"referUserGuide": "Du kan til hver en tid styre dit udstyr manuelt. Henvis til udstyrets brugervejledning for instruktioner."
			},
			"subheader": "Du har valgt at slå dataindsamling fra. Dermed har du deaktiveret appen. Slå dataindsamling TIL for at fortsætte med at bruge appen",
			"title": "Dataindsamling"
		},
		"manageDevices": {
			"devices": {
				"addShare": "Tilknyt en mobilenhed",
				"deleteShareModal": "Du er ved at slette",
				"deleteUser": "Slet bruger",
				"description": "Du kan dele dit SaluConnect-udstyr med så mange personer, du har lyst til. Du styrer, hvad dine gæster kan se og har adgang til.",
				"empty": "Du har ikke delt din konto med nogen gæster.",
				"formHeader": "Tilknyt en mobilenhed",
				"formLabels": {
					"countrySelect": "Land",
					"deselectAll": "Fravælg alle",
					"deviceListHeader": "Giv denne gæst adgang til:",
					"email": "E-mailadresse",
					"emptyDevices": "Ingen tilgængelige enheder",
					"firstName": "Fornavn",
					"lastName": "Efternavn",
					"name": "Navn eller alias for denne enhed",
					"selectAll": "Vælg alle"
				},
				"header": "Kontodeling"
			},
			"gateway": {
				"addGateway": "Tilføj en gateway",
				"description": "",
				"empty": "Du har ingen tilsluttede gateways.",
				"header": "Gateways"
			},
			"title": "Administrer konto"
		},
		"profile": {
			"changePassword": {
				"formFields": {
					"confirmPassword": "Bekræft adgangskode",
					"newPassword": "Ny adgangskode",
					"oldPassword": "Gammel adgangskode"
				},
				"passwordRequirements": "Adgangskoder skal være mellem 6 og 14 tegn lange og skal indeholde mindst et tal (0 - 9) eller symbol, et lille bogstav (a - z) og et stort bogstav (A - Z).",
				"title": "Skift adgangskode"
			},
			"deleteProfile": "Slet bruger profil",
			"deleteProfileErrorMsg": "Fejl under sletning af brugerprofil. Prøv igen senere.",
			"deleteProfileWarningLine1": "Vil du slette din brugerprofil?",
			"deleteProfileWarningLine2": "Denne operation kan ikke laves om.",
			"formFields": {
				"email": "E-mailadresse",
				"emailConfirm": "Bekræft e-mailadresse",
				"firstName": "Fornavn",
				"languageSelect": "Sprog",
				"lastName": "Efternavn",
				"submitButton": "Indsend"
			},
			"title": "Rediger profil"
		}
	},
	"setupWizard": {
		"headline": "Velkommen til Salus!",
		"landing": {
			"createProfile": {
				"active": "Din profil er oprettet."
			},
			"equipmentConnect": {
				"button": "Tilslut udstyr",
				"inactive": "Tilslut dit udstyr til gatewayen nu."
			},
			"equipmentShare": {
				"button": "Del udstyr",
				"inactive": "Del dit udstyr ved at give familie og venner adgang."
			},
			"gatewayConnect": {
				"active": "Din gateway er nu aktiveret og klar til at blive sluttet til dit udstyr.",
				"button": "Aktivér gateway",
				"inactive": "Aktivér din gateway for at begynde at bruge dine enheder."
			},
			"header": {
				"connect": "Knyt udstyr til gatewayen",
				"gateway": "Aktivér din gateway"
			},
			"subHeaderHtml": {
				"connect": "Succes! Din profil er oprettet, og din gateway er aktiveret.<br/>Lad us forbinde enheder og tilslutte dit udstyr til gatewayen nu.",
				"gateway": "Succes! Din profil er oprettet og din gateway er nu aktiveret."
			}
		},
		"newUserForm": {
			"cookieModal": {
				"information": "Cookies hjælper Salus' website med at fungere korrekt. Vi bruger det kun for at huske login-detaljer, levere sikker login og samle statistikker til at optimere funktionaliteten. Du kan ikke fortsætte uden at trykke Accepter. Se vores __privacy_policy__ for mere information."
			},
			"equipment": "Har du gatewayen?",
			"formFields": {
				"countrySelect": "Land",
				"email": "E-mailadresse",
				"emailConfirm": "Bekræft e-mailadresse",
				"firstName": "Fornavn",
				"languageSelect": "Sprog",
				"lastName": "Efternavn",
				"password": "Adgangskode",
				"passwordConfirm": "Bekræft adgangskode",
				"phone": "Telefonnummer",
				"phoneType": "Telefontype",
				"privacyPolicyLabel": "Jeg accepterer Salus Controls'",
				"privacyPolicyLinkLabel": "Privatlivspolitik",
				"submitButton": "Opret min profil",
				"termsAndConditionsLabel": "Jeg accepterer Salus Controls'",
				"termsAndConditionsLinkLabel": "Vilkår og Betingelser"
			},
			"header": "Konfiguration er nem.",
			"passwordRequirements": "Adgangskoder skal være på mellem 6 og 14 tegn lange og skal indholde mindst et tal (0 - 9) eller symbol, et lille bogstav (a - z) og et stort bogstav (A - Z).",
			"phoneTypes": {
				"phone": "Telefon",
				"tablet": "Tablet"
			},
			"subheader": "Opret din profil",
			"tooltip": {
				"equipment": "Sender et signal til dit udstyr, så du kan fjernbetjene det."
			}
		},
		"pairing": {
			"buttonText": "Scan for udstyr",
			"header": "Velkommen! Lad os tilslutte dit udstyr",
			"noCoordinator": "Ingen koordinator",
			"paragraphHtml": "Før tilslutning af udstyret skal du sørge for, at alt udstyret er tændt.<ol><li>Find først knappen på hver del af udstyret. Tryk ikke på den endnu. Se i brugervejledningen, hvis du har problemer med at finde knappen på udstyret.</li><li>Dernæst skal du klikke på den orange knap Scan for udstyr nedenfor. Bemærk: Når du klikker på knappen Scan for udstyr, har du kun to minutter til at trykke på knappen på dit udstyr fra Trin 1. Hold knappen nede i 3-5 sekunder.</li><li>Gentag processen, indtil du kan se alt dit udstyr nedenfor. Hvis du har gentaget processen flere gange, og du ikke kan se alt dit udstyr, kan du kontakte kundeservice.</li></ol>",
			"requiresCoordinator": "Klargøring af enheder kræver at en koordinatorenhed er registreret til gatewayen. Prøv at registrere gatewayen igen."
		},
		"provisioning": {
			"customize": {
				"access": "Adgang",
				"accessInfo": "Skal andre have adgang til denne del af udstyret? Hvis ja, vælg nedenfor.",
				"clampsError": "You must select 3 clamps.",
				"clampsReading": "Vælg de klemmer, du benytter",
				"completeSetup": "Færdiggør konfiguration",
				"continueSetupEquipment": "Fortsæt med at konfigurere udstyr",
				"energyMonitor": "Konfiguration af energimonitor til hele huset",
				"noShares": "Ingen delte brugere er tilgængelige på dette tidspunkt. Du kan dele dit udstyr når som helst, efter konfiguration afsluttes.",
				"oneTouch": "OneTouch",
				"oneTouchInfo": "OneTouch lader dig automatisk betjene og/eller lave advarsler for en eller flere dele af udstyret med et enkelt tryk. Vi har valgt nogle muligheder på forhånd, som måske passer til dine behov. Hvis du ikke kan lide dem, kan du simpelt tjekke OneTouch af eller vælge en anden én. Du kan altid foretage ændringer for OneTouch senere.",
				"oneTouchPreselected": "We’ve pre-selected options that might fit your needs. If you don’t like them, simply uncheck the OneTouch or choose a different one. You can always make changes to any OneTouch later.",
				"phasesReading": "Hvor mange faser?",
				"pin": "Vil du fastgøre denne del af udstyret til dit instrumentbræt?",
				"pinHeader": "Knappenål",
				"pinInfo": "En knappenål fastgør dine vigtigste genstande til instrumentbrættet for hurtig, nem adgang.",
				"selectAnother": "Vælg det næste udstyr.",
				"selectPhases": "Vælg faser",
				"selectVoltage": "Vælg spænding",
				"selectWhich": "Vælg det udstyr, du vil starte med.",
				"setupEquipment": "Lad os konfigurere dit udstyr",
				"success": {
					"mobile": {
						"description": "Søger du nemheden ved en app? Download vores til dine enheder nu. Tilgængelig på iTunes og GooglePlay.",
						"link": "Download appen",
						"title": "Mobilappen"
					},
					"myDashboard": {
						"description": "Besøg dit nye instrumentbræt. Se og administrer dit udstyr på et øjeblik for ubesværet styring af hjemmet på én skærm. Du kan tilføje mere udstyr fra instrumentbrættet senere.",
						"link": "Gå til mit instrumentbræt",
						"title": "Mit instrumentbræt"
					},
					"title": "Succes!\nDu er færdig med konfiguration."
				},
				"successfullySetup": "Succes! Du er færdig med din konfiguration.",
				"voltageReading": "Hvad er din spænding?"
			},
			"naming": {
				"nowConnected": "Udstyret nedenfor er nu tilsluttet din gateway. Navngiv dit udstyr.",
				"success": "Succes!",
				"textbox": "Navngiv dit udstyr (f.eks. Soveværelse-termostat)"
			},
			"select": {
				"connect": "Tilslut udstyr",
				"currentlyScanning": "Scanner efter enheder...",
				"letsConnect": "Lad os tilslutte dit udstyr",
				"notFound": "Desværre, ingen enheder blev fundet",
				"select": "Marker boksen ud for det udstyr, du vil tilslutte nu. Klik på \"Tilslut udstyr\".",
				"selectError": "Vælg mindst et udstyr, før du fortsætter"
			}
		},
		"subheader": "Som førstegangsbruger beder vi dig om at udføre nogle få simple trin for at administrere din konto og dit udstyr.<br/>Lad os komme i gang med at konfigurere dit nye system."
	}
}							
