<?xml version="1.0" encoding="utf-8"?>
<!-- Generator: Adobe Illustrator 16.0.0, SVG Export Plug-In . SVG Version: 6.00 Build 0)  -->
<!DOCTYPE svg PUBLIC "-//W3C//DTD SVG 1.1//EN" "http://www.w3.org/Graphics/SVG/1.1/DTD/svg11.dtd">
<svg version="1.1" id="Layer_1" xmlns="http://www.w3.org/2000/svg" xmlns:xlink="http://www.w3.org/1999/xlink" x="0px" y="0px"
	 width="100px" height="100px" viewBox="0 0 100 100" enable-background="new 0 0 100 100" xml:space="preserve">
<path fill="#ffa000" d="M21.168,64.913h56.653l6.266,17.044H15.914L21.168,64.913z M92.609,86.218H7.391c-2.34,0-4.261,1.919-4.261,4.261V99h93.74
	v-8.521C96.87,88.137,94.951,86.218,92.609,86.218 M31.677,30.826L25.111,52.13H73.12l-7.831-21.304H31.677z M60.59,18.044
	L55.049,2.981C54.617,1.891,53.303,1,52.13,1h-9.054c-1.171,0-2.44,0.907-2.823,2.014l-4.633,15.03H60.59z"/>
</svg>
